<?xml version="1.0" encoding="UTF-8"?>
<session version="1.0">
<refactoring comment="Delete resource &apos;EmpWebApp(edit and delete)&apos;" deleteContents="true" description="Delete resource &apos;EmpWebApp(edit and delete)&apos;" element1="/EmpWebApp(edit and delete)" flags="7" id="org.eclipse.ltk.core.refactoring.delete.resources" resources="1" stamp="1708580959915"/>
</session>