<?xml version="1.0" encoding="UTF-8"?>
<session version="1.0">
<refactoring comment="Delete resource &apos;EmpDept&apos;" deleteContents="true" description="Delete resource &apos;EmpDept&apos;" element1="/EmpDept" flags="7" id="org.eclipse.ltk.core.refactoring.delete.resources" resources="1" stamp="1710163952905"/>
</session>